…
Hay otros cálculos frecuentes que ya están incluidos en el paquete. Uno
de ellos es el del Amoníaco Libre. Para una tabla de datos como la
mencionada, la función `amoniaco_libre_add` permite agregar al parámetro
NH3L (siempre y cuando hayan datos de T, pH y NH4):

``` r
# Agregar NH3L:
d <- amoniaco_libre_add(d)

# Se pueden ver algunos valores aquí:
d %>%
  filter(id_parametro == 2091) %>%
  select(codigo_pto, fecha_muestra, param, valor)
#> # A tibble: 39 x 4
#>    codigo_pto fecha_muestra param  valor
#>    <fct>      <date>        <chr>  <dbl>
#>  1 C0         2019-06-04    NH3L  0.0687
#>  2 C1         2019-06-04    NH3L  0.0921
#>  3 C2         2019-06-04    NH3L  0.283 
#>  4 O2         2019-06-04    NH3L  0.187 
#>  5 SL1        2019-06-03    NH3L  0.135 
#>  6 SM1        2019-06-03    NH3L  0.0510
#>  7 SM2        2019-06-03    NH3L  0.0376
#>  8 T1         2019-06-05    NH3L  0.902 
#>  9 T2         2019-06-05    NH3L  0.133 
#> 10 T3         2019-06-06    NH3L  0.278 
#> # … with 29 more rows
…
``` r
d <- filtrar_datos(datos_sia, 
                   id_programa = 10L, 
                   id_matriz = 6L,
                   rango_fechas = c('2017-01-01', '2019-12-31'),
                   tipo_punto_id = 1L,
                   id_parametro = 2098)
```

IET x Estación x Mes:

``` r
iet_tabla(d, mes)
#> # A tibble: 58 x 4
#>    codigo_pto   mes   IET categ      
#>    <fct>      <int> <dbl> <chr>      
#>  1 C0             3  56.4 Mesotrófico
#>  2 C0             6  55.6 Mesotrófico
#>  3 C0             9  55.8 Mesotrófico
#>  4 C0            12  56.1 Mesotrófico
#>  5 C1             3  58.6 Mesotrófico
#>  6 C1             6  56.8 Mesotrófico
#>  7 C1             9  57   Mesotrófico
#>  8 C1            12  57.9 Mesotrófico
#>  9 C2             3  59.6 Eutrófico  
#> 10 C2             6  58.2 Mesotrófico
#> # … with 48 more rows
```

IET x Estación x Año x Mes:

``` r
iet_tabla(d, anio, mes)
#> # A tibble: 136 x 5
#>    codigo_pto  anio   mes   IET categ      
#>    <fct>      <int> <int> <dbl> <chr>      
#>  1 C0          2017     3  57.1 Mesotrófico
#>  2 C0          2017     6  56.6 Mesotrófico
#>  3 C0          2017     9  55.6 Mesotrófico
#>  4 C0          2017    12  56.6 Mesotrófico
#>  5 C0          2018     3  55.7 Mesotrófico
#>  6 C0          2018     6  55.8 Mesotrófico
#>  7 C0          2018    12  57.9 Mesotrófico
#>  8 C0          2019     6  54.6 Mesotrófico
#>  9 C0          2019     9  56   Mesotrófico
#> 10 C0          2019    12  53.9 Mesotrófico
#> # … with 126 more rows
```
…
